module bitbucket.org/uwaploe/rdins

require (
	bitbucket.org/uwaploe/go-ins/v2 v2.0.0
	github.com/armon/go-metrics v0.0.0-20180917152333-f0300d1749da // indirect
	github.com/boltdb/bolt v1.3.1 // indirect
	github.com/go-sql-driver/mysql v1.4.1 // indirect
	github.com/gogo/protobuf v1.2.0 // indirect
	github.com/hashicorp/go-immutable-radix v1.0.0 // indirect
	github.com/hashicorp/go-msgpack v0.5.3 // indirect
	github.com/hashicorp/raft v1.0.0 // indirect
	github.com/kr/pretty v0.1.0 // indirect
	github.com/lib/pq v1.0.0 // indirect
	github.com/nats-io/gnatsd v1.4.0 // indirect
	github.com/nats-io/go-nats v1.7.0 // indirect
	github.com/nats-io/go-nats-streaming v0.4.0
	github.com/nats-io/nats-streaming-server v0.11.2 // indirect
	github.com/nats-io/nkeys v0.0.2 // indirect
	github.com/nats-io/nuid v1.0.0 // indirect
	github.com/pascaldekloe/goe v0.0.0-20180627143212-57f6aae5913c // indirect
	github.com/pkg/errors v0.8.0
	github.com/vmihailenco/msgpack v4.0.1+incompatible
	golang.org/x/sync v0.0.0-20181221193216-37e7f081c4d4 // indirect
	golang.org/x/sys v0.0.0-20190204203706-41f3e6584952 // indirect
	google.golang.org/appengine v1.4.0 // indirect
	gopkg.in/check.v1 v1.0.0-20180628173108-788fd7840127 // indirect
)

go 1.13
